<svg width="24" height="24" viewBox="0 0 24 24" fill="none" xmlns="http://www.w3.org/2000/svg">
<path d="M7.05646 2.41802L8.22346 2.06626C9.54596 1.66762 10.959 2.31185 11.5253 3.57168L12.427 5.5774C12.9097 6.65123 12.6553 7.91324 11.7943 8.71619L10.3 10.1096C10.2563 10.1504 10.2286 10.2054 10.222 10.2647C10.1777 10.6619 10.4469 11.4353 11.0671 12.5096C11.5182 13.2909 11.9264 13.8387 12.2739 14.1469C12.516 14.3616 12.6493 14.408 12.7061 14.3911L14.7164 13.7765C15.842 13.4323 17.0618 13.8427 17.7505 14.7972L19.0312 16.5722C19.8373 17.6894 19.6924 19.2307 18.6921 20.178L17.8057 21.0174C16.8493 21.9232 15.4877 22.2607 14.219 21.9066C11.4649 21.1378 8.99559 18.8137 6.78372 14.9826C4.56877 11.1462 3.79158 7.8418 4.50803 5.07001C4.8359 3.80153 5.80203 2.79614 7.05646 2.41802ZM7.48936 3.85419C6.7367 4.08106 6.15702 4.6843 5.9603 5.44539C5.35765 7.77691 6.04651 10.7058 8.08276 14.2326C10.1163 17.7548 12.3052 19.8151 14.6223 20.4618C15.3835 20.6743 16.2004 20.4718 16.7743 19.9283L17.6606 19.0889C18.1153 18.6583 18.1812 17.9577 17.8148 17.4499L16.5341 15.6749C16.221 15.241 15.6666 15.0545 15.1549 15.2109L13.1396 15.8271C11.9699 16.1757 10.9082 15.2343 9.76811 13.2596C8.9998 11.9289 8.64171 10.9002 8.73128 10.0982C8.77768 9.6828 8.97125 9.2977 9.27697 9.01261L10.7713 7.61916C11.1627 7.25418 11.2783 6.68054 11.0589 6.19244L10.1572 4.18672C9.89977 3.61407 9.25749 3.32123 8.65636 3.50243L7.48936 3.85419Z" fill="white"/>
</svg>
